Rcapstone.utf8
…
x1 <- ames_train %>% group_by(Neighborhood) %>% summarise(sd_age=sd(age)) %>% arrange(desc(sd_age)) 
x1

## # A tibble: 27 x 2
##    Neighborhood sd_age
##    <fct>         <dbl>
##  1 ClearCr        26.5
##  2 Edwards        24.9
##  3 Crawfor        22.5
##  4 OldTown        20.3
##  5 SawyerW        15.4
##  6 Timber         14.2
##  7 Mitchel        13.4
##  8 IDOTRR         13.0
##  9 BrkSide        11.8
## 10 Sawyer         11.1
## # ... with 17 more rows
…
